<?xml version="1.0" encoding="UTF-8" standalone="no"?>
<svg
   xmlns:dc="http://purl.org/dc/elements/1.1/"
   xmlns:cc="http://creativecommons.org/ns#"
   xmlns:rdf="http://www.w3.org/1999/02/22-rdf-syntax-ns#"
   xmlns:svg="http://www.w3.org/2000/svg"
   xmlns="http://www.w3.org/2000/svg"
   xmlns:sodipodi="http://sodipodi.sourceforge.net/DTD/sodipodi-0.dtd"
   xmlns:inkscape="http://www.inkscape.org/namespaces/inkscape"
   width="320"
   height="240"
   viewBox="0 0 84.666667 63.500002"
   version="1.1"
   id="svg1105"
   inkscape:version="1.0.1 (3bc2e813f5, 2020-09-07)"
   sodipodi:docname="debianbrasil.svg">
  <defs
     id="defs1099" />
  <sodipodi:namedview
     id="base"
     pagecolor="#ffffff"
     bordercolor="#666666"
     borderopacity="1.0"
     inkscape:pageopacity="0.0"
     inkscape:pageshadow="2"
     inkscape:zoom="0.7"
     inkscape:cx="555.10736"
     inkscape:cy="299.32002"
     inkscape:document-units="mm"
     inkscape:current-layer="g4376"
     inkscape:document-rotation="0"
     showgrid="false"
     units="px"
     fit-margin-top="0"
     fit-margin-left="0"
     fit-margin-right="0"
     fit-margin-bottom="0"
     inkscape:window-width="1920"
     inkscape:window-height="1016"
     inkscape:window-x="0"
     inkscape:window-y="0"
     inkscape:window-maximized="1" />
  <metadata
     id="metadata1102">
    <rdf:RDF>
      <cc:Work
         rdf:about="">
        <dc:format>image/svg+xml</dc:format>
        <dc:type
           rdf:resource="http://purl.org/dc/dcmitype/StillImage" />
        <dc:title></dc:title>
      </cc:Work>
    </rdf:RDF>
  </metadata>
  <g
     inkscape:label="Layer 1"
     inkscape:groupmode="layer"
     id="layer1"
     transform="translate(-82.748308,-112.3402)">
    <g
       style="display:inline;fill:none"
       id="g5280"
       transform="matrix(0.57917866,0,0,0.57917866,66.174696,110.89225)">
      <g
         id="g4376"
         transform="matrix(0.21850933,0,0,0.21850933,-24.825834,-270.68617)">
        <g
           id="g3036"
           transform="matrix(0.65914315,0,0,0.65914315,145.84325,1049.7804)">
          <path
             style="fill:#4e9a06;fill-rule:evenodd;stroke:none;stroke-width:1.06667"
             d="m 621.48516,324.01983 c -0.005,0.0111 0.005,0.0276 0,0.0386 -1.49606,0.26371 -2.98125,0.53601 -4.48275,0.81154 -0.0575,0.12506 -0.16002,0.23844 -0.23186,0.38645 -0.29849,0.61441 -0.61925,1.24305 -0.96611,1.89358 -1.50107,2.81448 -3.14063,5.59504 -4.86921,8.38583 -8.11009,13.08855 -17.21028,25.46052 -26.43278,37.52373 -10.29527,13.46146 -20.73561,26.42593 -31.22469,39.03087 -280.53924,-1.36485 -385.59407,-24.69371 -385.59407,-24.69371 0,0 29.20723,60.51632 49.34893,336.12919 -41.09502,22.2339 -65.15516,35.63163 -67.08672,37.44644 0.12719,-0.0714 0.28132,-0.17779 0.50238,-0.2705 0.49035,-0.20571 1.20979,-0.46015 2.16409,-0.73424 0.25149,-0.0722 0.56615,-0.15702 0.85018,-0.23188 6.2722,-2.7745 21.88285,-10.40097 44.6343,-21.8341 -22.83236,12.77475 -37.96722,19.23162 -44.47973,21.79546 -0.048,0.0125 -0.10734,0.0262 -0.15457,0.0386 -0.22314,0.0987 -0.33417,0.14094 -0.54102,0.23187 -1.85711,0.71989 -3.1302,1.19798 -3.1302,1.19798 0,0 0.39167,-0.14697 1.00476,-0.30915 -0.61117,0.24314 -0.96872,0.37798 -1.00476,0.30915 0,0 -0.0132,-0.003 0,0.0386 0.0527,0.005 0.14393,0.0176 0.23186,0.0386 0.14289,-0.01 0.30787,-0.0465 0.54102,-0.0773 0.5192,-0.0688 1.27204,-0.17336 2.24138,-0.30916 2.03293,-0.28477 5.03984,-0.66006 9.04279,-0.92747 4.24825,-0.28379 9.58323,-0.46772 15.96015,-0.30915 6.37693,0.15856 13.83074,0.64372 22.22055,1.58443 6.08087,0.6823 12.70118,1.63176 19.74729,2.78239 12.46252,193.89972 2.21565,254.42252 -6.10581,273.10012 23.04258,-20.5912 104.17169,-73.7398 339.10482,-90.04148 10.01565,12.828 20.17715,25.80843 30.64503,39.1468 2.98747,-1.13931 5.98987,-2.2574 9.00414,-3.40071 8.54533,-5.62943 17.61779,-10.84258 26.89653,-16.11473 14.55498,-8.27153 29.46343,-16.48575 44.71159,-24.69378 229.48724,-4.89632 377.25263,26.03493 382.57983,27.16703 -4.6124,-1.36831 -36.6924,-16.75374 -52.59509,-178.69182 20.42679,-6.97254 41.18749,-13.60708 62.29479,-19.78594 32.4125,-9.45298 65.3593,-19.12896 98.582,-28.86739 -0.7049,-0.49037 -1.4144,-0.98135 -2.1255,-1.46848 2.513,-0.48648 4.4393,-0.83102 5.8354,-1.08205 -0.113,0.5287 -0.2373,1.05492 -0.3479,1.58441 1.8642,-0.54651 3.6596,-1.07573 5.5262,-1.62306 0.3101,-1.86425 0.6554,-3.73939 0.966,-5.60344 -0.1429,-0.10006 -0.3213,-0.20973 -0.4637,-0.30915 -0.6038,-0.42198 -1.1744,-0.81621 -1.7775,-1.23662 -2.7031,-1.88427 -5.4065,-3.7606 -8.1154,-5.64209 -13.1362,-9.12374 -26.364,-18.29813 -39.6492,-27.47618 -9.2156,-6.36652 -18.4673,-12.72806 -27.7468,-19.129 -31.1651,-21.49785 -61.9862,-42.69798 -92.47601,-63.64736 15.78131,-135.39138 61.63781,-231.01637 61.63781,-231.01637 0,0 -88.08686,19.73327 -342.69871,25.46668 -11.64076,-10.07497 -22.98551,-20.23713 -34.00709,-30.5291 -19.74144,-19.06116 -39.09307,-37.75837 -57.96664,-56.07306 z m 536.77104,416.81876 c -1.1323,0.33194 -2.2307,0.63448 -3.362,0.96611 0.1813,0.1262 0.3597,0.26025 0.541,0.38645 0.6014,0.4186 1.2172,0.81871 1.8162,1.23662 0.1411,0.0984 0.2849,0.21122 0.4252,0.30915 0.2017,-0.96477 0.378,-1.93351 0.5796,-2.89833 z M 213.67056,1037.0868 c -5.74966,5.1379 -7.92211,8.2698 -7.92211,8.2698 0,0 3.7068,1.1915 7.92211,-8.2698 z M 626.85674,329.46869 c -0.10091,0.21515 -0.2158,0.39084 -0.30916,0.57967 -0.2956,0.59802 -0.5934,1.17112 -0.88882,1.739 -0.59037,-0.74962 -1.11394,-1.40309 -1.54578,-1.97086 0.91325,-0.11241 1.82459,-0.22739 2.74376,-0.34781 z"
             id="path3959-6"
             inkscape:connector-curvature="0" />
          <path
             style="fill:#edd400;fill-rule:evenodd;stroke:none;stroke-width:1.06667"
             d="m 149.79116,761.14631 c 0,0 111.89656,-38.04482 279.74142,-208.1276 167.84483,-170.08278 192.46209,-226.03106 192.46209,-226.03106 0,0 51.47241,76.08966 273.02761,228.26899 221.55522,152.17933 266.31382,183.51038 266.31382,183.51038 0,0 -163.36897,26.85516 -362.54487,127.56207 -199.17588,100.70691 -214.8414,116.37244 -214.8414,116.37244 0,0 -51.47242,-107.42071 -212.60348,-174.55865 C 210.21531,741.00494 149.79116,761.14631 149.79116,761.14631 Z"
             id="path3950"
             inkscape:connector-curvature="0" />
          <path
             style="color:#000000;display:inline;overflow:visible;visibility:visible;fill:#204a87;fill-opacity:1;fill-rule:nonzero;stroke:none;stroke-width:1.33333;marker:none;enable-background:accumulate"
             d="m 1006.9188,660.4394 c 0,152.02498 -123.24057,275.26556 -275.26554,275.26556 -152.02496,0 -275.26555,-123.24058 -275.26555,-275.26556 0,-152.02496 123.24059,-275.26553 275.26555,-275.26553 152.02497,0 275.26554,123.24057 275.26554,275.26553 z"
             id="path3946"
             inkscape:connector-curvature="0" />
          <path
             style="fill:#ffffff;stroke-width:1.06667"
             d="m 755.76787,405.44907 c -8.48663,0.65797 -16.92906,1.05587 -25.26392,2.04005 l 3.68023,0.47508 c 6.12516,-2.0752 15.06392,-1.14854 21.58369,-2.51513 z m -37.02863,3.60503 c -13.78619,0.77608 -32.93525,7.43185 -27.02862,1.36936 -22.49136,9.30182 -62.43805,22.35992 -84.85659,41.83525 l -0.69381,-4.37356 c -10.27136,11.42202 -44.80655,34.11203 -47.55651,48.91961 l -2.74508,0.60083 c -5.33603,8.38515 -8.8095,17.8855 -13.04675,26.50685 -6.9872,11.03959 -10.24138,4.24833 -9.24583,5.98046 -13.74979,25.82466 -20.59114,47.51889 -26.48564,65.32394 4.20082,5.82069 0.10485,35.04571 1.6893,58.43523 -6.89612,115.53608 87.52738,227.70447 190.7388,253.59662 15.12781,5.02207 37.62273,4.84279 56.7571,5.33769 -22.57029,-5.98375 -25.49651,-3.16725 -47.49618,-10.27018 -15.86234,-6.92856 -19.33046,-14.82842 -30.57311,-23.86594 l 4.44946,7.27994 c -22.03607,-7.22661 -12.80662,-8.93832 -30.73902,-14.1966 l 4.75113,-5.74292 c -7.14503,-0.50615 -18.92435,-11.1504 -22.14175,-17.06106 l -7.82803,0.29344 c -9.38508,-10.71904 -14.38236,-18.46616 -14.01206,-24.46679 l -2.53395,4.17793 c -2.85921,-4.54968 -34.53855,-40.25438 -18.09951,-31.94235 -3.05349,-2.57572 -7.12221,-4.20772 -11.52336,-11.62557 l 3.34842,-3.53518 c -7.8978,-9.43116 -14.55214,-21.51604 -14.04223,-25.54269 4.21902,5.27515 7.14352,6.26273 10.04526,7.16817 -19.97819,-45.91301 -21.1075,-2.53085 -36.22924,-46.73981 l 3.19759,-0.22355 c -2.44642,-3.4362 -3.94566,-7.15133 -5.91252,-10.80118 l 1.38764,-12.84122 c -14.37506,-15.38681 -4.01281,-65.49016 -1.93062,-92.96261 1.42658,-11.16895 11.99882,-23.06923 20.03013,-41.72346 l -4.88688,-0.7825 c 9.3608,-15.11687 53.42474,-60.71888 73.84607,-58.37935 9.88892,-11.50638 -1.9549,-0.0577 -3.89139,-2.94831 21.7265,-20.82506 28.55224,-14.70728 43.21261,-18.45838 15.80164,-8.68881 -13.56948,3.39764 -6.07842,-3.31161 27.33566,-6.46179 19.37023,-14.7046 55.02256,-17.9833 3.76373,1.97961 -8.7228,3.06104 -11.85519,5.63114 22.76453,-10.32536 72.04404,-7.96508 104.07224,5.72894 37.13354,16.0898 78.87662,63.62054 80.52781,108.34691 l 1.88537,0.4751 c -0.94702,17.78255 2.92839,38.34871 -3.81599,57.23355 l 4.57013,-8.94275 c 0.54635,13.5872 -4.29289,20.18345 -8.6576,31.85852 l -7.84312,3.61902 c -6.41658,11.55136 0.64365,7.3324 -3.95174,16.51612 -10.02854,8.25017 -30.38818,25.80668 -36.90793,27.41512 -4.76538,-0.0957 3.22432,-5.21367 4.26847,-7.21011 -13.40984,8.52573 -10.76965,12.80649 -31.28203,17.99729 l -0.58824,-1.24361 c -50.56763,22.04544 -120.81697,-21.63511 -119.89426,-81.22526 -0.53418,3.77923 -1.53761,2.82717 -2.65459,4.34561 -2.61032,-30.65553 15.27722,-61.43738 45.45998,-74.02914 29.52107,-13.53093 64.13226,-7.98769 85.26383,10.28416 -11.60689,-14.09334 -34.7273,-29.03611 -62.11152,-27.65264 -26.8379,0.40492 -51.95439,16.20929 -60.33176,33.36759 -13.7437,8.01397 -15.3417,30.9049 -21.32726,35.10028 -8.06776,54.88864 15.15475,78.58864 54.44939,106.4885 3.08385,1.92897 3.5218,3.04138 3.28808,4.03822 0.003,-0.002 0.0131,0.002 0.0149,0 46.35467,16.03355 94.22659,12.14423 134.32861,-17.63399 10.21066,-7.36722 21.36173,-19.89655 24.58519,-20.06527 -4.85036,6.75985 0.83141,3.2553 -2.89592,9.22221 10.14996,-15.18998 -4.42977,-6.18405 10.49772,-26.22741 l 5.50528,7.02845 c -2.06399,-12.61988 16.90778,-27.92949 14.97733,-47.87162 4.35259,-6.09623 4.85496,6.57042 0.24134,20.59625 6.40444,-15.56113 1.69429,-18.0635 3.33333,-30.90834 1.76653,4.3191 4.11329,8.89509 5.30921,13.45603 -4.17655,-15.04375 4.26458,-25.3212 6.365,-34.06628 -2.07614,-0.84356 -6.44328,6.65154 -7.45098,-11.10855 0.15178,-7.7159 2.33574,-4.05165 3.16741,-5.95251 -1.62691,-0.87171 -5.91758,-6.77975 -8.52185,-18.12303 1.8758,-2.67134 5.04297,6.90588 7.61688,7.29393 -1.65726,-9.015 -4.50905,-15.89503 -4.63047,-22.81795 -7.52747,-14.56574 -2.65328,1.95359 -8.74808,-6.24597 -8.01315,-23.13646 6.63637,-5.36803 7.63195,-15.87337 12.12896,16.28102 19.04521,41.52499 22.23226,51.9797 -2.42822,-12.74924 -6.34156,-25.10585 -11.13123,-37.05649 3.69698,1.44532 -5.94848,-26.21722 4.79638,-7.89476 -11.46725,-39.05755 -49.03296,-75.56419 -83.60471,-92.68315 4.21903,3.58237 9.5532,8.08044 7.64704,8.78905 -17.20393,-9.47617 -14.18692,-10.22038 -16.65154,-14.22457 -13.99262,-5.28076 -14.92039,0.43577 -24.17797,0.0139 -26.40687,-12.97982 -31.49137,-11.60911 -55.79177,-19.72993 l 1.10105,4.79277 c -17.48923,-5.3989 -20.37835,2.03852 -39.27595,0.0139 -1.14639,-0.82601 6.04165,-3.00603 11.97585,-3.80066 -16.89676,2.06457 -16.11127,-3.1011 -32.65457,0.55893 4.07333,-2.64884 8.39857,-4.40164 12.74507,-6.65116 z m 13.65007,2.93434 c 4.8443,0.79858 10.46046,1.42701 9.65308,2.50118 5.3178,-1.08541 6.51885,-2.07377 -9.65308,-2.50118 z m 9.65308,2.50118 -3.37857,0.65672 3.15232,-0.27946 z m -223.18221,99.54389 c -0.003,0.2255 0.0131,0.4185 0.0452,0.58686 -0.017,-0.19467 -0.0222,-0.38818 -0.0452,-0.58686 z m 0.0452,0.58686 c 0.99224,11.67468 -9.67767,16.11002 2.44342,8.24409 6.31945,-13.1805 -1.77655,-4.66703 -2.44342,-8.24409 z m -10.10557,37.89488 c -7.84922,9.30183 -3.60881,11.29319 -4.43439,17.61999 2.84707,-8.08145 3.34774,-12.93534 4.43439,-17.61999 z m 323.27257,56.18558 c -1.1223,0.0269 -2.56266,2.66508 -3.28809,5.5473 1.68762,0.82108 3.02765,10.6794 4.66064,4.58316 0.55242,-7.56688 -0.25026,-10.15718 -1.37255,-10.13046 z m 99.20046,25.50079 -1.34236,3.10201 c -2.44037,16.07292 -7.72096,31.9745 -15.80694,46.72584 8.93585,-15.56116 14.70288,-32.57954 17.1493,-49.82785 z m -105.06773,5.67306 c -1.22019,5.56758 -4.47271,10.37021 -7.55655,15.45416 -16.95502,9.89232 -1.60558,-5.87643 -0.0149,-11.87707 -18.22377,21.27496 -2.49967,12.7655 -3.16741,18.70989 5.42099,-6.9117 9.3489,-14.46986 10.73904,-22.28698 z m -36.98337,32.44537 c -7.36355,1.67028 -14.8644,1.71142 -22.42831,1.07592 -9.0694,0.11253 1.70085,4.32961 13.54447,6.02239 3.28416,-2.37325 6.2371,-4.77004 8.88384,-7.09831 z m -114.47948,1.10389 c 2.00329,6.81044 6.11835,12.66476 9.92458,18.62604 l -2.80542,-7.62927 c -3.15668,-3.23932 -5.01875,-7.12759 -7.11916,-10.99677 z m -6.9683,11.49978 -1.28206,5.89663 c 5.96736,7.50783 10.7043,15.64174 18.31068,21.49052 -5.47562,-9.89233 -9.53758,-13.99116 -17.02862,-27.38715 z m 11.44793,8.73315 c 21.21657,35.19398 86.06826,61.72169 120.0451,48.5563 -15.72272,0.5399 -35.6952,0.30271 -53.34835,-5.74292 -6.72631,-3.19958 -15.61176,-9.48378 -15.91248,-11.66748 -0.33674,0.79483 -0.86331,1.602 -0.52792,2.79461 -13.05168,-5.65758 -25.00729,-14.21043 -34.84158,-24.67639 5.22068,7.06919 10.85111,13.93981 18.12969,19.33869 -12.31714,-3.85232 -28.75477,-27.63551 -33.54446,-28.60281 z m 50.96526,30.61493 c -0.14505,0.126 -0.2069,0.30713 -0.18107,0.517 0.0715,-0.16981 0.13809,-0.34438 0.18107,-0.517 z"
             id="path3820"
             inkscape:connector-curvature="0" />
          <path
             style="color:#000000;display:inline;overflow:visible;visibility:visible;fill:#ffffff;fill-opacity:1;fill-rule:nonzero;stroke:none;stroke-width:1.33333;marker:none;enable-background:accumulate"
             inkscape:transform-center-x="-2.06564"
             inkscape:transform-center-y="-1.0288707"
             d="m 888.67385,868.18767 -16.09787,-14.84451 -20.75312,6.98638 9.14347,-19.89721 -13.05751,-17.57847 21.74884,2.54738 12.68313,-17.85048 4.29808,21.47157 20.89611,6.54626 -19.09251,10.72278 z"
             id="path3948"
             inkscape:connector-curvature="0" />
        </g>
      </g>
    </g>
  </g>
</svg>
